{
    "status": "success",
    "items": "<div class='portfolio__item'> <div class='case-card picture js-lazy js-case-card' style='background-image: url(&quot;assets/images/content/cases/nezlob.jpg&quot;);'> <div class='case-card__inner'> <div class='case-card__content-wrap'> <div class='case-card__content'> <div class='case-card__content-row'> <h3 class='title case-card__title'>Александр Незлобин</h3> </div><div class='case-card__content-row'> <ul class='technologies'> <li class='technologies__item'>UX / UI</li><li class='technologies__item'>Design</li><li class='technologies__item'>Frontend</li><li class='technologies__item'>Backend</li><li class='technologies__item'>QA</li></ul> </div><div class='case-card__content-row case-card__content-row--hidden'><a class='case-card__link' href='https://nezlobin.com' target='_blank'>Перейти на сайт <div class='case-card__icon'> <svg class='icon link'> <use xlink:href='#link'></use> </svg> </div></a></div></div></div></div><a class='case-card__overlay' href='https://nezlobin.com' target='_blank'></a> </div></div>"
}
